(0.0, 0.42320725496128714)
(0.05, 0.4157105104129787)
(0.1, 0.39581175117648704)
(0.15000000000000002, 0.329411346972671)
(0.2, 0.3115575082755711)
(0.25, 0.2304426413771764)
(0.30000000000000004, 0.1708413096013902)
(0.35000000000000003, 0.1671771478223091)
(0.4, 0.15567575487890387)
(0.45, 0.09090909090909091)
